%YAML 1.1
%TAG !u! tag:unity3d.com,2011:
--- !u!114 &11400000
MonoBehaviour:
  m_ObjectHideFlags: 0
  m_CorrespondingSourceObject: {fileID: 0}
  m_PrefabInstance: {fileID: 0}
  m_PrefabAsset: {fileID: 0}
  m_GameObject: {fileID: 0}
  m_Enabled: 1
  m_EditorHideFlags: 0
  m_Script: {fileID: 11500000, guid: bbb281ee3bf0b054c82ac2347e9e782c, type: 3}
  m_Name: Default Local Group
  m_EditorClassIdentifier: 
  m_GroupName: Default Local Group
  m_Data:
    m_SerializedData: []
  m_GUID: 28559beea7bcc864abeab17ab3aa8125
  m_SerializeEntries: []
  m_ReadOnly: 0
  m_Settings: {fileID: 11400000, guid: 8aa9626248db0e641bc8c0c08c004d98, type: 2}
  m_SchemaSet:
    m_Schemas:
    - {fileID: 11400000, guid: ef0b64b662eae2b4ab131eef0cd34bf5, type: 2}
    - {fileID: 11400000, guid: b7b928b762a7b07479be76ed1b2a3570, type: 2}
