%YAML 1.1
%TAG !u! tag:unity3d.com,2011:
--- !u!114 &11400000
MonoBehaviour:
  m_ObjectHideFlags: 0
  m_CorrespondingSourceObject: {fileID: 0}
  m_PrefabInstance: {fileID: 0}
  m_PrefabAsset: {fileID: 0}
  m_GameObject: {fileID: 0}
  m_Enabled: 1
  m_EditorHideFlags: 0
  m_Script: {fileID: 11500000, guid: 468a46d0ae32c3544b7d98094e6448a9, type: 3}
  m_Name: AddressableAssetSettings
  m_EditorClassIdentifier: 
  m_DefaultGroup: 28559beea7bcc864abeab17ab3aa8125
  m_OptimizeCatalogSize: 0
  m_BuildRemoteCatalog: 0
  m_BundleLocalCatalog: 0
  m_CatalogRequestsTimeout: 0
  m_DisableCatalogUpdateOnStart: 0
  m_IgnoreUnsupportedFilesInBuild: 0
  m_UniqueBundleIds: 0
  m_NonRecursiveBuilding: 0
  m_maxConcurrentWebRequests: 500
  m_ContiguousBundles: 0
  m_StripUnityVersionFromBundleBuild: 0
  m_DisableVisibleSubAssetRepresentations: 0
  m_ShaderBundleNaming: 0
  m_ShaderBundleCustomNaming: 
  m_MonoScriptBundleNaming: 0
  m_MonoScriptBundleCustomNaming: 
  m_RemoteCatalogBuildPath:
    m_Id: 
  m_RemoteCatalogLoadPath:
    m_Id: 
  m_ContentStateBuildPath: 
  m_overridePlayerVersion: 
  m_GroupAssets:
  - {fileID: 11400000, guid: 319f78c46bd6d2645be61d90a61fe216, type: 2}
  - {fileID: 11400000, guid: d65af158fe3fb4544af7b220ca431e95, type: 2}
  m_BuildSettings:
    m_CompileScriptsInVirtualMode: 0
    m_CleanupStreamingAssetsAfterBuilds: 1
    m_LogResourceManagerExceptions: 1
    m_BundleBuildPath: Temp/com.unity.addressables/AssetBundles
  m_ProfileSettings:
    m_Profiles:
    - m_InheritedParent: 
      m_Id: c2141c8b2741b7f41b48d73ad594f7cc
      m_ProfileName: Default
      m_Values:
      - m_Id: 43ae80648122d714c8c5eec7d36fec83
        m_Value: '[UnityEditor.EditorUserBuildSettings.activeBuildTarget]'
      - m_Id: a8024f8a3848024439fcf97cb8f60cb0
        m_Value: '[UnityEngine.AddressableAssets.Addressables.BuildPath]/[BuildTarget]'
      - m_Id: dd1e3d0706ccbfc449b1d0bdd86bb8b5
        m_Value: '{UnityEngine.AddressableAssets.Addressables.RuntimePath}/[BuildTarget]'
      - m_Id: 20fcab9a2998bf14580fc1e5ac13f477
        m_Value: ServerData/[BuildTarget]
      - m_Id: f563666b93286c5498d61df9a0e43d4a
        m_Value: http://localhost/[BuildTarget]
    m_ProfileEntryNames:
    - m_Id: 43ae80648122d714c8c5eec7d36fec83
      m_Name: BuildTarget
      m_InlineUsage: 0
    - m_Id: a8024f8a3848024439fcf97cb8f60cb0
      m_Name: LocalBuildPath
      m_InlineUsage: 0
    - m_Id: dd1e3d0706ccbfc449b1d0bdd86bb8b5
      m_Name: LocalLoadPath
      m_InlineUsage: 0
    - m_Id: 20fcab9a2998bf14580fc1e5ac13f477
      m_Name: RemoteBuildPath
      m_InlineUsage: 0
    - m_Id: f563666b93286c5498d61df9a0e43d4a
      m_Name: RemoteLoadPath
      m_InlineUsage: 0
    m_ProfileVersion: 1
  m_LabelTable:
    m_LabelNames:
    - default
  m_SchemaTemplates: []
  m_GroupTemplateObjects:
  - {fileID: 11400000, guid: 1ff7c128c32a84f4784303c093b90947, type: 2}
  m_InitializationObjects: []
  m_CertificateHandlerType:
    m_AssemblyName: 
    m_ClassName: 
  m_ActivePlayerDataBuilderIndex: 3
  m_DataBuilders:
  - {fileID: 11400000, guid: 8f12f5215526e7444b9c7219cde8513f, type: 2}
  - {fileID: 11400000, guid: a14d6c688ac951d4d80b5eb70413dc55, type: 2}
  - {fileID: 11400000, guid: 6458805082310134182275ec0b74d1c3, type: 2}
  - {fileID: 11400000, guid: 6bb34057dbfcc0e489a05cfb02f21b1a, type: 2}
  m_ActiveProfileId: c2141c8b2741b7f41b48d73ad594f7cc
  m_HostingServicesManager:
    m_HostingServiceInfos: []
    m_Settings: {fileID: 11400000}
    m_NextInstanceId: 0
    m_RegisteredServiceTypeRefs: []
