%YAML 1.1
%TAG !u! tag:unity3d.com,2011:
--- !u!114 &11400000
MonoBehaviour:
  m_ObjectHideFlags: 0
  m_CorrespondingSourceObject: {fileID: 0}
  m_PrefabInstance: {fileID: 0}
  m_PrefabAsset: {fileID: 0}
  m_GameObject: {fileID: 0}
  m_Enabled: 1
  m_EditorHideFlags: 0
  m_Script: {fileID: 11500000, guid: 3f1ca63a91b17724bbd99c8fa67e0180, type: 3}
  m_Name: Default Material Palette
  m_EditorClassIdentifier: 
  array:
  - {fileID: 2100000, guid: ae2976fcafc63ad429bd58258f4a5932, type: 2}
  - {fileID: 2100000, guid: 0d9c803e8481c754da2ab33c7459c5cd, type: 2}
  - {fileID: 2100000, guid: 9b6bc6b4a9376564e8d8d30a35375ab6, type: 2}
  - {fileID: 2100000, guid: d8a24bf41767a4b4dbc2bd6da77ed0f8, type: 2}
  - {fileID: 0}
  - {fileID: 0}
  - {fileID: 0}
  - {fileID: 0}
  - {fileID: 0}
  - {fileID: 2100000, guid: 52b7d70b1de7c4ce09662b77c14d9fda, type: 2}
