{
"instructions_readme": "1) Open Chrome, 2) go to chrome://tracing, 3) click Load, 4) navigate to this file.",
"traceEvents":[
{ "cat":"", "pid":1, "tid":0, "ts":0, "ph":"M", "name":"process_name", "args": { "name":"tundra" } }
,{ "pid":1, "tid":0, "ts":691442032799, "dur":7654, "ph":"X", "name": "DriverCheckDagSignatures",  "args": { "durationMS":8, "detail":"" }}
,{ "pid":1, "tid":0, "ts":691442040453, "dur":1167, "ph":"X", "name": "DriverInitData",  "args": { "durationMS":1, "detail":"" }}
,{ "pid":1, "tid":0, "ts":691442041756, "dur":0, "ph":"X", "name": "Tundra",  "args": { "durationMS":0, "detail":"RemoveStaleOutputs" }}
,{ "pid":1, "tid":0, "ts":691442041765, "dur":1, "ph":"X", "name": "Tundra",  "args": { "durationMS":0, "detail":"PrepareNodes" }}
,{ "pid":1, "tid":0, "ts":691442041765, "dur":392, "ph":"X", "name": "Tundra",  "args": { "durationMS":0, "detail":"BuildQueueInit" }}
,{ "pid":1, "tid":0, "ts":691790954233, "dur":19512, "ph":"X", "name": "JoinBuildThread",  "args": { "durationMS":20, "detail":"" }}
,{ "pid":1, "tid":0, "ts":691790973772, "dur":85, "ph":"X", "name": "JoinBuildThread",  "args": { "durationMS":0, "detail":"" }}
,{ "pid":1, "tid":0, "ts":691790973877, "dur":4, "ph":"X", "name": "JoinBuildThread",  "args": { "durationMS":0, "detail":"" }}
,{ "pid":1, "tid":0, "ts":691790973896, "dur":3, "ph":"X", "name": "JoinBuildThread",  "args": { "durationMS":0, "detail":"" }}
,{ "pid":1, "tid":0, "ts":691790973912, "dur":0, "ph":"X", "name": "SharedResourceDestroy",  "args": { "durationMS":0, "detail":"" }}
,{ "pid":1, "tid":0, "ts":691790973919, "dur":64638, "ph":"X", "name": "Tundra",  "args": { "durationMS":65, "detail":"Write AllBuiltNodes" }}
,{ "pid":1, "tid":1, "ts":691442044837, "dur":131252, "ph":"X", "name": "CheckInputSignature",  "args": { "durationMS":131, "detail":"Il2Cpp C:/Projetos/MainLeafTest/Library/Il2cppBuildCache/Windows/x64/Native/GameAssembly.dll" }}
,{ "pid":1, "tid":1, "ts":691442180606, "dur":348773468, "ph":"X", "name": "Il2Cpp",  "args": { "durationMS":348773, "detail":"C:/Projetos/MainLeafTest/Library/Il2cppBuildCache/Windows/x64/Native/GameAssembly.dll" }}
,{ "pid":1, "tid":1, "ts":691790954079, "dur":4, "ph":"X", "name": "CheckInputSignature",  "args": { "durationMS":0, "detail":"all_tundra_nodes" }}
,{ "pid":1, "tid":1, "ts":691790954209, "dur":96, "ph":"X", "name": "WaitingForWork", "cname":"thread_state_sleeping",  "args": { "durationMS":0, "detail":"" }}
,{ "pid":1, "tid":1, "ts":691790954305, "dur":19249, "ph":"X", "name": "Exiting",  "args": { "durationMS":19, "detail":"BuildLoop" }}
,{ "pid":1, "tid":2, "ts":691442045496, "dur":348908815, "ph":"X", "name": "WaitingForWork", "cname":"thread_state_sleeping",  "args": { "durationMS":348909, "detail":"" }}
,{ "pid":1, "tid":2, "ts":691790954312, "dur":19232, "ph":"X", "name": "Exiting",  "args": { "durationMS":19, "detail":"BuildLoop" }}
,{ "pid":1, "tid":3, "ts":691442045463, "dur":348908857, "ph":"X", "name": "WaitingForWork", "cname":"thread_state_sleeping",  "args": { "durationMS":348909, "detail":"" }}
,{ "pid":1, "tid":3, "ts":691790954320, "dur":19161, "ph":"X", "name": "Exiting",  "args": { "durationMS":19, "detail":"BuildLoop" }}
,{ "pid":1, "tid":4, "ts":691442045573, "dur":348908743, "ph":"X", "name": "WaitingForWork", "cname":"thread_state_sleeping",  "args": { "durationMS":348909, "detail":"" }}
,{ "pid":1, "tid":4, "ts":691790954316, "dur":19210, "ph":"X", "name": "Exiting",  "args": { "durationMS":19, "detail":"BuildLoop" }}

]
}
